START

MOV SP,
1535
MOV BP,
1535
JMP 00008

PUSH BP

MOV BP,SP

PUSH R0

MOV R0,
1
MOV R1,
BP
ADD R0,
R1
MOV R1,
1
MOV [R0],
R1
MOV R0,
1
MOV R1,
BP
ADD R0,
R1
MOV R0,
[R0]
MOV R1,
20
LE R0,
R1
JZ R0,
00090
MOV R0,
1
MOV R1,
BP
ADD R0,
R1
MOV R0,
[R0]
MOV R1,
2
MOD R0,
R1
MOV R1,
0
EQ R0,
R1
JZ R0,
00088
MOV R0,
1
MOV R1,
BP
ADD R0,
R1
MOV R0,
[R0]
OUT R0

MOV R0,
1
MOV R1,
BP
ADD R0,
R1
MOV R1,
1
MOV R2,
BP
ADD R1,
R2
MOV R1,
[R1]
MOV R2,
1
ADD R1,
R2
MOV [R0],
R1
JMP 00088

JMP 24

MOV R0,
10
PUSH R0

INT 7

INT 7































































































































































































































































































































































































































